sku ,price ,qty 
8906071870073-conf,150,0
8906071870073,150,0
8906071870066,300,0
8906071870097-conf,80,0
8906071870097,80,0
8906071870080,155,0
8906071870110-conf,120,0
8906071870110,120,0
8906071870103,235,0
8906071870165-conf,105,0
8906071870165,105,0
8906071870691,210,0
8906071870189-conf,110,0
8906071870189,110,0
8906071870172,220,0
8906071870202-conf,120,0
8906071870202,120,0
8906071870196,240,0
8906071870288-conf,95,0
8906071870288,95,0
8906071870271,190,0
8906071870301-conf,99,0
8906071870301,99,0
8906071870295,198,0
8906071870325-conf,99,0
8906071870325,99,0
8906071870318,198,0
8906071870226-conf,120,0
8906071870226,120,0
8906071870219,240,0
8906071870707-conf,125,0
8906071870707,125,0
8906071870714,250,0
8906071870264-conf,130,0
8906071870264,130,0
8906071870257,260,0
8906071870349-conf,80,0
8906071870349,80,0
8906071870332,155,0
8906071870721-conf,95,0
8906071870721,95,0
MOCR007,190,0
8906071870363-conf,89,0
8906071870363,89,0
8906071870356,175,0
8906071870004-conf,60,0
8906071870004,285,0
MOWCA006,60,0
8906071871193-conf,110,0
8906071871193,150,0
8906071870240,720,0
8906071870011,110,0
8906071870493-conf,455,0
8906071870493,455,0
8906071870486,880,0
8906071870035-conf,199,0
8906071870035,199,0
8906071870042,950,0
8906071870400-conf,60,0
8906071870400,60,0
8906071870394,115,0
8906071870387,575,0
8906071870585-conf,150,0
8906071870585,150,0
MOH005,450,0
8906071870813-conf,79,0
8906071870813,79,0
MOCB004,155,0
8906071870837-conf,89,0
8906071870837,89,0
8906071870844,199,0
8906071870851-conf,140,0
8906071870851,140,0
MOAP003,199,0
8906071870868,299,0
8906071870875-conf,50,0
8906071870875,50,0
8906071870516,150,0
8906071870530-conf,45,0
8906071870530,45,0
8906071870882,145,0
8906071870899-conf,47,0
8906071870899,47,0
8906071870547,145,0
8906071870905-conf,24,0
8906071870905,24,0
MOCS002,120,0
8906071870561-conf,60,0
8906071870561,60,0
8906071870578,155,0
8906071870912-conf,65,0
8906071870912,65,0
8906071870929,199,0
8906071870974-conf,190,0
8906071870974,190,0
8906071870752,585,0
8906071871001-conf,95,0
8906071871001,95,0
8906071870998,285,0
8906071871032-conf,155,0
8906071871032,155,0
MOGC001,940,0
8906071871063-conf,95,0
8906071871063,95,0
8906071871056,285,0
8906071871070-conf,15,0
8906071871070,15,0
8906071871087,75,0
8906071871100-conf,60,0
8906071871100,60,0
8906071870622,240,0
8906071871131-conf,205,0
8906071871131,499,0
8906071871209,205,0
8906071871124,998,0
8906071871155-conf,499,0
8906071871155,499,0
8906071871148,999,0
8906071871179-conf,220,0
8906071871179,220,0
8906071871162,440,0
8906071871186,99,0
8906071870127,99,0
8906071870141,195,0
8906071870370,115,0
8906071870738,90,0
8706071870745,95,0
MOBBPF001,90,0
MOOOP002,3100,0
8906071870646,350,0
MOCO003,345,0
8906071870453,399,0
8906071870448,299,0
8906071870462,299,0
8906071870660,110,0
8906071870059,215,0
8906071870677,199,0
8906071870684,95,0
8906071870417,80,0
8906071870424,65,0
8906071870431,65,0
8906071870769,350,0
8906071870509,175,0
8906071870776,199,0
8906071870783,55,0
8906071870790,45,0
8906071870806,45,0
8906071870233,50,0
MOWLK004,99,0
8906071870158,36,0
MOMHP005,140,0
MOMP006,80,0
MOCP007,80,0
MOGP008,140,0
MOMP009,80,0
MPLP010,140,0
MOAM011,400,0
MOBPM012,350,0
MOMB013,80,0
8906071870875,55,0
8906071870523,27,0
8906071870530,50,0
8906071870899,50,0
MOCSB-14,40,0
8906071870561,65,0
8906071870912,70,0
8906071870936-BOTTLE,65,0
8906071870936,60,0
8906071870943-BOTTLE,55,0
8906071870943,53,0
8906071870950,36,0
MOFS015,25,0
8906071870967-BOTTLE,55,0
8906071870967,53,0
8906071870752,199,0
8906071870981,210,0
8906071870981,199,0
8906071870998,99,0
8906071871018,99,0
8906071871025-BOTTLE,232,0
8906071871025,237,0
MOYMB-16,160,0
8906071870592-BOTTLE,43,0
8906071870592,37,0
8906071871049-BOTTLE,44,0
8906071871049,40,0
8906071871056,99,0
8906071870608-BOTTLE,99,0
8906071870608,95,0
8906071870615,50,0
8906071871094,120,0
8906071870639,35,0
8906071871117,230,0
MOR017,72,0
