sku ,price ,qty 
8906071870073-conf,150,0
8.90607E+12,150,10
8.90607E+12,300,10
8906071870097-conf,80,0
8.90607E+12,80,10
8.90607E+12,155,10
8906071870110-conf,120,0
8.90607E+12,120,10
8.90607E+12,235,10
8906071870165-conf,105,0
8.90607E+12,105,10
8.90607E+12,210,10
8906071870189-conf,110,0
8.90607E+12,110,10
8.90607E+12,220,10
8906071870202-conf,120,0
8.90607E+12,120,10
8.90607E+12,240,10
8906071870288-conf,95,0
8.90607E+12,95,10
8.90607E+12,190,10
8906071870301-conf,99,0
8.90607E+12,99,10
8.90607E+12,198,10
8906071870325-conf,99,0
8.90607E+12,99,10
8.90607E+12,198,10
8906071870226-conf,120,0
8.90607E+12,120,10
8.90607E+12,240,10
8906071870707-conf,125,0
8.90607E+12,125,10
8.90607E+12,250,10
8906071870264-conf,130,0
8.90607E+12,130,10
8.90607E+12,260,10
8906071870349-conf,80,0
8.90607E+12,80,10
8.90607E+12,155,10
8906071870721-conf,95,0
8.90607E+12,95,10
MOCR007,190,10
8906071870363-conf,89,0
8.90607E+12,89,10
8.90607E+12,175,10
8906071870004-conf,60,0
8.90607E+12,285,10
MOWCA006,60,10
8906071871193-conf,110,0
8.90607E+12,150,10
8.90607E+12,720,10
8.90607E+12,110,10
8906071870493-conf,455,0
8.90607E+12,455,10
8.90607E+12,880,10
8906071870035-conf,199,0
8.90607E+12,199,10
8.90607E+12,950,10
8906071870400-conf,60,0
8.90607E+12,60,10
8.90607E+12,115,10
8.90607E+12,575,10
8906071870585-conf,150,0
8.90607E+12,150,10
MOH005,450,10
8906071870813-conf,79,0
8.90607E+12,79,10
MOCB004,155,10
8906071870837-conf,89,0
8.90607E+12,89,10
8.90607E+12,199,10
8906071870851-conf,140,0
8.90607E+12,140,10
MOAP003,199,10
8.90607E+12,299,10
8906071870875-conf,50,0
8.90607E+12,50,10
8.90607E+12,150,10
8906071870530-conf,45,0
8.90607E+12,45,10
8.90607E+12,145,10
8906071870899-conf,47,0
8.90607E+12,47,10
8.90607E+12,145,10
8906071870905-conf,24,0
8.90607E+12,24,10
MOCS002,120,10
8906071870561-conf,60,0
8.90607E+12,60,10
8.90607E+12,155,10
8906071870912-conf,65,0
8.90607E+12,65,10
8.90607E+12,199,10
8906071870974-conf,190,0
8.90607E+12,190,10
8.90607E+12,585,10
8906071871001-conf,95,0
8.90607E+12,95,10
8.90607E+12,285,10
8906071871032-conf,155,0
8.90607E+12,155,10
MOGC001,940,10
8906071871063-conf,95,0
8.90607E+12,95,10
8.90607E+12,285,10
8906071871070-conf,15,0
8.90607E+12,15,10
8.90607E+12,75,10
8906071871100-conf,60,0
8.90607E+12,60,10
8.90607E+12,240,10
8906071871131-conf,205,0
8.90607E+12,499,10
8.90607E+12,205,10
8.90607E+12,998,10
8906071871155-conf,499,0
8.90607E+12,499,10
8.90607E+12,999,10
8906071871179-conf,220,0
8.90607E+12,220,10
8.90607E+12,440,10
8.90607E+12,99,10
8.90607E+12,99,10
8.90607E+12,195,10
8.90607E+12,115,10
8.90607E+12,90,10
8.70607E+12,95,10
MOBBPF001,90,10
MOOOP002,3100,10
8.90607E+12,350,10
MOCO003,345,10
8.90607E+12,399,10
8.90607E+12,299,10
8.90607E+12,299,10
8.90607E+12,110,10
8.90607E+12,215,10
8.90607E+12,199,10
8.90607E+12,95,10
8.90607E+12,80,10
8.90607E+12,65,10
8.90607E+12,65,10
8.90607E+12,350,10
8.90607E+12,175,10
8.90607E+12,199,10
8.90607E+12,55,10
8.90607E+12,45,10
8.90607E+12,45,10
8.90607E+12,50,10
MOWLK004,99,10
8.90607E+12,36,10
MOMHP005,140,10
MOMP006,80,10
MOCP007,80,10
MOGP008,140,10
MOMP009,80,10
MPLP010,140,10
MOAM011,400,10
MOBPM012,350,10
MOMB013,80,10
8.90607E+12,55,10
8.90607E+12,27,10
8.90607E+12,50,10
8.90607E+12,50,10
MOCSB-14,40,10
8.90607E+12,65,10
8.90607E+12,70,10
8906071870936-BOTTLE,65,10
8.90607E+12,60,10
8906071870943-BOTTLE,55,10
8.90607E+12,53,10
8.90607E+12,36,10
MOFS015,25,10
8906071870967-BOTTLE,55,10
8.90607E+12,53,10
8.90607E+12,199,10
8.90607E+12,210,10
8.90607E+12,199,10
8.90607E+12,99,10
8.90607E+12,99,10
8906071871025-BOTTLE,232,10
8.90607E+12,237,10
MOYMB-16,160,10
8906071870592-BOTTLE,43,10
8.90607E+12,37,10
8906071871049-BOTTLE,44,10
8.90607E+12,40,10
8.90607E+12,99,10
8906071870608-BOTTLE,99,10
8.90607E+12,95,10
8.90607E+12,50,10
8.90607E+12,120,10
8.90607E+12,35,10
8.90607E+12,230,10
MOR017,72,10
