SKU,Quantity,Price
ByMG-1,5,219
ByMG-2,5,170
ByMG-3,5,198
ByMG-4,5,210
ByMG-5,5,237
ByMG-6,5,149
ByMG-7,5,149
ByMG-8,5,87
ByMG-9,5,77
ByMG-10,5,46
ByMG-11,5,275
ByMG-12,5,46
ByMG-13,5,60
ByMG-14,5,56
ByMG-15,5,127
ByMG-16,5,60
ByMG-17,5,73
ByMG-18,5,62
ByMG-19,5,65
ByMG-20,5,58
ByMG-21,5,69
ByMG-22,5,136
ByMG-23,5,83
ByMG-24,5,80
ByMG-25,10,59
ByMG-26,10,63
ByMG-27,10,68
ByMG-28,10,48
ByMG-29,10,69
ByMG-30,10,63
ByMG-31,10,136
ByMG-32,10,69
ByMG-33,10,88
ByMG-34,10,112
ByMG-35,10,65
ByMG-36,10,56
ByMG-37,10,70
ByMG-38,10,145
ByMG-39,10,86
ByMG-40,10,80
ByMG-41,10,89
ByMG-42,10,90
ByMG-43,10,101
ByMG-44,10,105
ByMG-45,10,81
ByMG-46,10,85
ByMG-47,10,100
ByMG-48,10,92
ByMG-49,10,125
ByMG-50,10,120
